module gitlab.com/pcanilho/go-jira

go 1.12

require (
	github.com/dgrijalva/jwt-go v3.2.0+incompatible
	github.com/fatih/structs v1.1.0
	github.com/google/go-cmp v0.5.6
	github.com/google/go-querystring v0.0.0-20170111101155-53e6ce116135
	github.com/json-iterator/go v1.1.11
	github.com/pkg/errors v0.9.1
	github.com/trivago/tgo v1.0.7
	golang.org/x/term v0.0.0-20210220032956-6a3ed077a48d
)
