{
    "isLast": true,
    "maxResults": 50,
    "startAt": 0,
    "values": [
        {
            "completeDate": "2016-04-28T05:08:48.543-07:00",
            "endDate": "2016-04-27T08:29:00.000-07:00",
            "id": 740,
            "name": "Iteration-10",
            "originBoardId": 734,
            "self": "https://jira.com/rest/agile/1.0/sprint/740",
            "startDate": "2016-04-11T07:29:03.294-07:00",
            "state": "closed"
        },
        {
            "completeDate": "2016-05-30T02:45:44.991-07:00",
            "endDate": "2016-05-26T14:56:00.000-07:00",
            "id": 776,
            "name": "Iteration-12-1",
            "originBoardId": 734,
            "self": "https://jira.com/rest/agile/1.0/sprint/776",
            "startDate": "2016-05-19T13:56:00.000-07:00",
            "state": "closed"
        },
        {
            "completeDate": "2016-06-08T07:54:13.723-07:00",
            "endDate": "2016-06-08T01:06:00.000-07:00",
            "id": 807,
            "name": "Iteration-12-2",
            "originBoardId": 734,
            "self": "https://jira.com/rest/agile/1.0/sprint/807",
            "startDate": "2016-06-01T00:06:00.000-07:00",
            "state": "closed"
        },
        {
            "endDate": "2016-06-28T14:24:00.000-07:00",
            "id": 832,
            "name": "Iteration-13-2",
            "originBoardId": 734,
            "self": "https://jira.com/rest/agile/1.0/sprint/832",
            "startDate": "2016-06-20T13:24:39.161-07:00",
            "state": "active"
        }
    ]
}
